…
#### Create plotting DataFrame
```julia
df = DataFrame(
    Value = vcat(fm, bfm),
    Method = vcat(fill("Frequentist FM", 20000), fill("Bayesian FM", 1000))
)
```
Console Output:
```julia
21000×2 DataFrame
   Row │ Value     Method
       │ Float64   String
───────┼──────────────────────────
     1 │ 0.207803  Frequentist FM
     2 │ 0.237487  Frequentist FM
     3 │ 0.206156  Frequentist FM
     4 │ 0.182515  Frequentist FM
     5 │ 0.152894  Frequentist FM
     6 │ 0.14362   Frequentist FM
   ⋮   │    ⋮            ⋮
 20996 │ 0.19532   Bayesian FM
 20997 │ 0.130483  Bayesian FM
 20998 │ 0.174461  Bayesian FM
 20999 │ 0.226412  Bayesian FM
 21000 │ 0.123783  Bayesian FM
                20989 rows omitted
```
…
```julia
m1_uf = results_fm_uf.lambda[k]
sd1_uf = sqrt(results_fm_uf.cov_lambda[k,k])
bfm_uf = results_bfm_uf.lambda_ols_path[1001:2000,k]
fm_uf = rand(rng, Normal(m1_uf, sd1_uf), 20000)
df_uf = DataFrame(
    Value = vcat(fm_uf, bfm_uf),
    Method = vcat(fill("Frequentist FM", 20000), fill("Bayesian FM", 1000))
)
```
Console Output:
```julia
21000×2 DataFrame
   Row │ Value      Method
       │ Float64    String
───────┼───────────────────────────
     1 │  0.961224  Frequentist FM
     2 │  1.10149   Frequentist FM
     3 │  1.43786   Frequentist FM
     4 │  1.35079   Frequentist FM
     5 │  1.56759   Frequentist FM
     6 │  1.21512   Frequentist FM
   ⋮   │     ⋮            ⋮
 20996 │ -1.26963   Bayesian FM
 20997 │  0.669039  Bayesian FM
 20998 │ -0.802147  Bayesian FM
 20999 │  2.36535   Bayesian FM
 21000 │ -0.601039  Bayesian FM
                 20989 rows omitted
```
…
# Generate GMM draws
rng = MersenneTwister(123)  # for reproducibility
fm = rand(rng, Normal(m1, sd1), 5000)

# Create plotting DataFrame for strong factor
df_strong = DataFrame(
    Value = vcat(fm, bfm),
    Method = vcat(fill("GMM-OLS", 5000), fill("BSDF-OLS", 1000))
)
```

Console Output:
```julia
6000×2 DataFrame
  Row │ Value     Method   
      │ Float64   String
──────┼────────────────────
    1 │ 0.208319  GMM-OLS
    2 │ 0.238374  GMM-OLS
    3 │ 0.20665   GMM-OLS
    4 │ 0.182714  GMM-OLS
    5 │ 0.152722  GMM-OLS
    6 │ 0.143332  GMM-OLS
  ⋮   │    ⋮         ⋮
 5996 │ 0.192677  BSDF-OLS
 5997 │ 0.118785  BSDF-OLS
 5998 │ 0.173055  BSDF-OLS
 5999 │ 0.218479  BSDF-OLS
 6000 │ 0.125678  BSDF-OLS
          5989 rows omitted
```
…
# Create plotting DataFrame for useless factor
df_useless = DataFrame(
    Value = vcat(fm_uf, bfm_uf),
    Method = vcat(fill("GMM-OLS", 5000), fill("BSDF-OLS", 1000))
)
```

Console Output:
```julia
6000×2 DataFrame
  Row │ Value      Method   
      │ Float64    String
──────┼─────────────────────
    1 │  0.564754  GMM-OLS
    2 │  1.16776   GMM-OLS
    3 │  1.38975   GMM-OLS
    4 │  0.842655  GMM-OLS
    5 │  0.901772  GMM-OLS
    6 │  0.800888  GMM-OLS
  ⋮   │     ⋮         ⋮
 5996 │ -1.22358   BSDF-OLS
 5997 │  0.646415  BSDF-OLS
 5998 │ -0.808775  BSDF-OLS
 5999 │  2.24012   BSDF-OLS
 6000 │ -0.642434  BSDF-OLS
           5989 rows omitted
```
…
